{
	"page": 1,
	"per_page": 2,
	"total": 12,
	"total_pages": 124,
	"data": [
		{
			"id": 2,
			"email": "qwe1234@gamil.com",
			"first_name": "aanand",
			"last_name": "kanan",
			"avatar": "bvcxwert1234"
		},
		{
			"id": 12,
			"email": "gfde1234@gamil.com",
			"first_name": "nanda",
			"last_name": "balan",
			"avatar": "bvcxwert1234"
		},
		{
			"id": 3,
			"email": "wsde1234@gamil.com",
			"first_name": "mukund",
			"last_name": "krisnan",
			"avatar": "bvcxwert1234"
		},
		{
			"id": 4,
			"email": "vcdde1234@gamil.com",
			"first_name": "deva",
			"last_name": "raman",
			"avatar": "bvcxwert1234"
		}
	],
	"support": {
		"url": "asdfghgfd.com",
		"text": "qwertyqwert"
	}
}